{
  "count": 567,
  "next": "http://marsweather.ingenology.com/v1/archive/?terrestrial_date_end=2015-09-30&terrestrial_date_start=2012-01-01&page=2",
  "previous": null,
  "results": [
    {
      "terrestrial_date": "2015-09-30",
      "sol": 1120,
      "ls": 48.0,
      "min_temp": -80.0,
      "min_temp_fahrenheit": -112.0,
      "max_temp": -24.0,
      "max_temp_fahrenheit": -11.2,
      "pressure": 900.0,
      "pressure_string": "Higher",
      "abs_humidity": null,
      "wind_speed": null,
      "wind_direction": "--",
      "atmo_opacity": "Sunny",
      "season": "Month 2",
      "sunrise": "2015-09-30T11:12:00Z",
      "sunset": "2015-09-30T22:59:00Z"
    },
    {
      "terrestrial_date": "2015-09-29",
      "sol": 1119,
      "ls": 48.0,
      "min_temp": -81.0,
      "min_temp_fahrenheit": -113.8,
      "max_temp": -55.0,
      "max_temp_fahrenheit": -67.0,
      "pressure": 908.0,
      "pressure_string": "Higher",
      "abs_humidity": null,
      "wind_speed": null,
      "wind_direction": "--",
      "atmo_opacity": "Sunny",
      "season": "Month 2",
      "sunrise": "2015-09-29T11:12:00Z",
      "sunset": "2015-09-29T22:59:00Z"
    },
    {
      "terrestrial_date": "2015-09-28",
      "sol": 1118,
      "ls": 47.0,
      "min_temp": -80.0,
      "min_temp_fahrenheit": -112.0,
      "max_temp": -25.0,
      "max_temp_fahrenheit": -13.0,
      "pressure": 898.0,
      "pressure_string": "Higher",
      "abs_humidity": null,
      "wind_speed": null,
      "wind_direction": "--",
      "atmo_opacity": "Sunny",
      "season": "Month 2",
      "sunrise": "2015-09-28T11:12:00Z",
      "sunset": "2015-09-28T23:00:00Z"
    },
    {
      "terrestrial_date": "2015-09-27",
      "sol": 1117,
      "ls": 47.0,
      "min_temp": -79.0,
      "min_temp_fahrenheit": -110.2,
      "max_temp": -25.0,
      "max_temp_fahrenheit": -13.0,
      "pressure": 898.0,
      "pressure_string": "Higher",
      "abs_humidity": null,
      "wind_speed": null,
      "wind_direction": "--",
      "atmo_opacity": "Sunny",
      "season": "Month 2",
      "sunrise": "2015-09-27T11:13:00Z",
      "sunset": "2015-09-27T23:00:00Z"
    },
    {
      "terrestrial_date": "2015-09-26",
      "sol": 1116,
      "ls": 46.0,
      "min_temp": -79.0,
      "min_temp_fahrenheit": -110.2,
      "max_temp": -26.0,
      "max_temp_fahrenheit": -14.8,
      "pressure": 898.0,
      "pressure_string": "Higher",
      "abs_humidity": null,
      "wind_speed": null,
      "wind_direction": "--",
      "atmo_opacity": "Sunny",
      "season": "Month 2",
      "sunrise": "2015-09-26T11:13:00Z",
      "sunset": "2015-09-26T23:01:00Z"
    },
    {
      "terrestrial_date": "2015-09-23",
      "sol": 1113,
      "ls": 45.0,
      "min_temp": -79.0,
      "min_temp_fahrenheit": -110.2,
      "max_temp": -24.0,
      "max_temp_fahrenheit": -11.2,
      "pressure": 895.0,
      "pressure_string": "Higher",
      "abs_humidity": null,
      "wind_speed": null,
      "wind_direction": "--",
      "atmo_opacity": "Sunny",
      "season": "Month 2",
      "sunrise": "2015-09-23T11:14:00Z",
      "sunset": "2015-09-23T23:02:00Z"
    },
    {
      "terrestrial_date": "2015-09-22",
      "sol": 1112,
      "ls": 44.0,
      "min_temp": -80.0,
      "min_temp_fahrenheit": -112.0,
      "max_temp": -24.0,
      "max_temp_fahrenheit": -11.2,
      "pressure": 895.0,
      "pressure_string": "Higher",
      "abs_humidity": null,
      "wind_speed": null,
      "wind_direction": "--",
      "atmo_opacity": "Sunny",
      "season": "Month 2",
      "sunrise": "2015-09-22T11:14:00Z",
      "sunset": "2015-09-22T23:02:00Z"
    },
    {
      "terrestrial_date": "2015-09-21",
      "sol": 1111,
      "ls": 44.0,
      "min_temp": -79.0,
      "min_temp_fahrenheit": -110.2,
      "max_temp": -26.0,
      "max_temp_fahrenheit": -14.8,
      "pressure": 896.0,
      "pressure_string": "Higher",
      "abs_humidity": null,
      "wind_speed": null,
      "wind_direction": "--",
      "atmo_opacity": "Sunny",
      "season": "Month 2",
      "sunrise": "2015-09-21T11:14:00Z",
      "sunset": "2015-09-21T23:02:00Z"
    },
    {
      "terrestrial_date": "2015-09-20",
      "sol": 1110,
      "ls": 43.0,
      "min_temp": -81.0,
      "min_temp_fahrenheit": -113.8,
      "max_temp": -25.0,
      "max_temp_fahrenheit": -13.0,
      "pressure": 895.0,
      "pressure_string": "Higher",
      "abs_humidity": null,
      "wind_speed": null,
      "wind_direction": "--",
      "atmo_opacity": "Sunny",
      "season": "Month 2",
      "sunrise": "2015-09-20T11:15:00Z",
      "sunset": "2015-09-20T23:03:00Z"
    },
    {
      "terrestrial_date": "2015-09-19",
      "sol": 1109,
      "ls": 43.0,
      "min_temp": -82.0,
      "min_temp_fahrenheit": -115.6,
      "max_temp": -26.0,
      "max_temp_fahrenheit": -14.8,
      "pressure": 895.0,
      "pressure_string": "Higher",
      "abs_humidity": null,
      "wind_speed": null,
      "wind_direction": "--",
      "atmo_opacity": "Sunny",
      "season": "Month 2",
      "sunrise": "2015-09-19T11:15:00Z",
      "sunset": "2015-09-19T23:03:00Z"
    }
  ]
}
